<?xml version="1.0" encoding="UTF-8"?>
<svg width="101px" height="46px" viewBox="0 0 101 46" version="1.1" xmlns="http://www.w3.org/2000/svg" xmlns:xlink="http://www.w3.org/1999/xlink">
    <title>Shape Copy</title>
    <g id="ui" stroke="none" stroke-width="1" fill="none" fill-rule="evenodd">
        <g id="2-2-1-courses-phibrows" transform="translate(-669.000000, -204.000000)" fill="#FFFFFF">
            <path d="M765.572386,250 C766.457645,250 767.550036,249.905776 768.341624,249.336449 C769.547476,248.483123 770,247.516993 770,246.322601 C770,244.862789 769.321873,243.631239 767.135772,242.418268 L766.457645,242.038717 C764.96946,241.205297 764.705597,240.63597 764.705597,239.915354 C764.705597,238.816514 765.779518,238.191449 766.9669,238.191449 C768.04082,238.191449 768.568545,238.646645 768.812618,238.949224 C769.170152,239.365934 769.246672,239.858289 769.246672,240.010905 C769.246672,240.200681 769.303403,240.294905 769.415544,240.294905 C769.547476,240.294905 769.622677,240.125036 769.622677,239.782644 C769.622677,238.512607 769.679407,238.058739 769.679407,237.849057 C769.679407,237.734926 769.604206,237.679188 769.453804,237.640702 C769.02107,237.526571 768.172752,237.375281 767.098831,237.375281 C764.800588,237.375281 762.916609,238.645318 762.916609,240.616064 C762.916609,242.03739 763.557795,243.11765 765.516975,244.273556 L766.478754,244.842883 C767.948468,245.714789 768.11734,246.415498 768.11734,247.117535 C768.11734,248.254861 767.250552,249.163926 765.819097,249.163926 C764.782117,249.163926 763.539325,248.765795 763.181791,247.571404 C763.08812,247.287404 763.031389,246.946339 763.031389,246.737984 C763.031389,246.623853 763.012919,246.472564 762.861198,246.472564 C762.729267,246.472564 762.654066,246.64376 762.654066,246.889274 C762.634276,247.154694 762.559075,248.15931 762.559075,249.031216 C762.559075,249.39086 762.615806,249.466505 762.879668,249.580636 C763.594736,249.904449 764.611926,250 765.572386,250 Z M747.22734,249.412094 C747.377741,249.828804 747.472732,250 747.679864,250 C747.925256,250 748.018928,249.810224 748.32105,249.146674 C748.999177,247.668282 751.222219,241.944493 751.505872,241.262362 L751.544132,241.262362 L754.917615,249.222318 C755.161688,249.810224 755.275149,250 755.500751,250 C755.746143,250 755.839815,249.810224 756.028476,249.242225 C756.838534,246.834862 758.535171,241.717558 759.306969,239.689747 C759.646032,238.760775 759.834694,238.15429 760.230488,238.003 C760.41915,237.945935 760.644752,237.927356 760.814944,237.927356 C760.965345,237.927356 761.041865,237.851711 761.041865,237.73758 C761.041865,237.642029 760.928404,237.60487 760.739743,237.60487 C760.193547,237.60487 759.47716,237.642029 759.363699,237.642029 C759.213298,237.642029 758.45997,237.60487 757.593181,237.60487 C757.329319,237.60487 757.197387,237.642029 757.197387,237.756159 C757.197387,237.850384 757.329319,237.926029 757.47972,237.926029 C758.139377,237.926029 758.289779,238.115804 758.289779,238.381224 C758.289779,238.608159 758.233048,238.930645 758.120907,239.310196 C757.536451,241.186717 756.273868,245.432116 755.954595,246.361087 L755.897864,246.361087 L752.582431,238.401131 C752.375299,237.890197 752.224897,237.643356 752.036235,237.643356 C751.885834,237.643356 751.715642,237.776066 751.54677,238.231262 L748.381739,246.475218 L748.325008,246.475218 C748.079616,245.736022 746.572961,240.865559 746.289308,239.803877 C746.082176,239.064682 745.931775,238.533841 745.931775,238.325486 C745.931775,238.155617 745.951564,238.060066 746.101966,238.003 C746.233897,237.945935 746.384299,237.927356 746.51623,237.927356 C746.685102,237.927356 746.818353,237.87029 746.818353,237.757487 C746.818353,237.643356 746.704892,237.606197 746.460819,237.606197 C745.500359,237.606197 744.688982,237.643356 744.53858,237.643356 C744.388178,237.643356 743.464659,237.606197 742.616341,237.606197 C742.370949,237.606197 742.239018,237.643356 742.239018,237.757487 C742.239018,237.871617 742.332689,237.927356 742.50288,237.927356 C742.653282,237.927356 742.973875,237.945935 743.142747,238.060066 C743.388139,238.211355 743.520071,238.590906 743.727203,239.178813 L747.22734,249.412094 Z M719.562667,238.72229 C719.562667,238.589579 719.600927,238.532514 719.713069,238.495355 C719.88326,238.456869 720.279054,238.43829 720.693319,238.43829 C721.673568,238.43829 723.218483,239.026196 723.218483,241.300848 C723.218483,242.62795 722.653818,243.32866 722.144563,243.688304 C721.86223,243.896659 721.635308,243.953725 720.976971,243.953725 C720.562707,243.953725 720.071922,243.915239 719.714388,243.802435 C719.600927,243.74537 719.563987,243.688304 719.563987,243.518435 L719.563987,238.72229 L719.562667,238.72229 Z M717.451767,245.10963 C717.451767,246.588021 717.451767,247.858058 717.376566,248.540188 C717.319835,249.013963 717.226164,249.31787 716.887101,249.393515 C716.736699,249.432 716.548037,249.45058 716.302645,249.45058 C716.095513,249.45058 716.038783,249.544804 716.038783,249.620449 C716.038783,249.73458 716.152243,249.791645 716.359376,249.791645 C717.019032,249.791645 718.073163,249.73458 718.393756,249.73458 C718.639148,249.73458 720.013872,249.791645 720.975651,249.791645 C721.182784,249.791645 721.314715,249.73458 721.314715,249.620449 C721.314715,249.544804 721.239514,249.45058 721.107583,249.45058 C720.900451,249.45058 720.541598,249.432 720.297525,249.393515 C719.78827,249.31787 719.713069,249.013963 719.656339,248.540188 C719.581138,247.858058 719.562667,246.606601 719.562667,245.10963 L719.562667,244.881369 C719.562667,244.787144 719.619398,244.748658 719.694599,244.748658 L721.182784,244.785817 C721.296245,244.785817 721.389916,244.804397 721.484906,244.899948 C721.692038,245.146789 722.388636,246.22705 723.048292,247.098956 C723.971811,248.350413 724.593207,249.108188 725.309594,249.467832 C725.743648,249.694767 726.194853,249.790318 727.118372,249.790318 L728.701548,249.790318 C728.90868,249.790318 729.022141,249.751832 729.022141,249.619122 C729.022141,249.543477 728.94694,249.449253 728.815009,249.449253 C728.683078,249.449253 728.588087,249.449253 728.419215,249.410767 C728.155352,249.353701 727.570897,249.278057 726.647378,248.349085 C725.648658,247.344469 724.481066,245.884658 723.011351,244.065201 C724.631468,242.758006 725.309594,241.696325 725.309594,240.501933 C725.309594,239.421672 724.612997,238.606832 724.142002,238.284346 C723.256744,237.69644 722.050892,237.602216 720.995441,237.602216 C720.487506,237.602216 718.979531,237.639375 718.413546,237.639375 C718.074482,237.639375 717.019032,237.602216 716.152243,237.602216 C715.906851,237.602216 715.77492,237.639375 715.77492,237.753505 C715.77492,237.867636 715.888381,237.923374 716.057253,237.923374 C716.302645,237.923374 716.584978,237.941954 716.716909,237.98044 C717.244635,238.131729 717.395036,238.302925 717.433296,238.852346 C717.451767,239.36328 717.451767,239.818476 717.451767,242.262997 L717.451767,245.10963 Z M712.051819,246.569442 C712.051819,248.540188 710.620364,248.995384 709.772046,248.995384 C709.339312,248.995384 708.905258,248.976805 708.396003,248.76845 C707.793077,248.521609 707.736346,248.20045 707.736346,246.948993 L707.736346,242.456754 C707.736346,242.36253 707.774606,242.324044 707.849807,242.324044 C708.13214,242.324044 708.320802,242.324044 708.659865,242.34395 C709.394723,242.381109 709.827457,242.513819 710.223251,242.799146 C711.656025,243.802435 712.051819,245.39363 712.051819,246.569442 Z M707.737666,236.600254 C707.737666,236.391899 707.775926,236.316254 707.906538,236.277768 C708.0952,236.240609 708.264072,236.240609 708.527934,236.240609 C710.14805,236.240609 710.882908,237.908776 710.882908,239.178813 C710.882908,240.107784 710.600575,240.789914 710.10979,241.188045 C709.789197,241.472044 709.374933,241.547689 708.753537,241.547689 C708.320802,241.547689 708.03715,241.52911 707.868278,241.490624 C707.793077,241.472044 707.736346,241.433558 707.736346,241.282269 L707.736346,236.600254 L707.737666,236.600254 Z M705.476363,244.29479 C705.476363,246.038601 705.476363,247.535572 705.382692,248.331833 C705.307491,248.881253 705.21382,249.297963 704.836497,249.374935 C704.666305,249.412094 704.440703,249.45058 704.15837,249.45058 C703.932767,249.45058 703.856247,249.507645 703.856247,249.601869 C703.856247,249.73458 703.988178,249.791645 704.233571,249.791645 C704.610894,249.791645 705.100359,249.753159 705.534413,249.753159 C705.986937,249.73458 706.401202,249.73458 706.608334,249.73458 C706.890667,249.73458 707.456652,249.753159 708.021318,249.791645 C708.567514,249.810224 709.113709,249.84871 709.340631,249.84871 C712.807785,249.84871 714.371171,247.745254 714.371171,245.717443 C714.371171,243.499856 712.487192,242.154175 710.942277,241.623334 C711.977937,240.788587 712.864516,239.860943 712.864516,238.306907 C712.864516,237.302291 712.26159,235.464255 708.851166,235.464255 C708.211299,235.464255 707.476442,235.52132 706.552923,235.52132 C706.175599,235.52132 704.988218,235.464255 703.990817,235.464255 C703.708484,235.464255 703.576553,235.502741 703.576553,235.634124 C703.576553,235.766834 703.690014,235.80532 703.897146,235.80532 C704.161008,235.80532 704.481601,235.823899 704.632003,235.862385 C705.2534,235.995095 705.405121,236.297675 705.442061,236.942646 C705.479002,237.549132 705.479002,238.079972 705.479002,240.96111 L705.479002,244.29479 L705.476363,244.29479 Z M698.020926,245.10963 C698.020926,246.663666 698.020926,247.952282 697.945725,248.615833 C697.888995,249.089608 697.795324,249.316543 697.45626,249.392187 C697.305859,249.430673 697.117197,249.449253 696.871805,249.449253 C696.664672,249.449253 696.607942,249.543477 696.607942,249.619122 C696.607942,249.733253 696.721403,249.790318 696.928535,249.790318 C697.588191,249.790318 698.718843,249.733253 699.094847,249.733253 C699.547371,249.733253 700.678022,249.790318 701.770413,249.790318 C701.959075,249.790318 702.091006,249.733253 702.091006,249.619122 C702.091006,249.543477 702.015806,249.449253 701.827144,249.449253 C701.583071,249.449253 701.205748,249.430673 700.978826,249.392187 C700.489361,249.316543 700.3759,249.069702 700.319169,248.634412 C700.243968,247.952282 700.243968,246.663666 700.243968,245.10963 L700.243968,242.266978 C700.243968,239.822457 700.243968,239.367261 700.282228,238.856327 C700.319169,238.287 700.451101,238.060066 700.903625,237.984421 C701.092287,237.947262 701.224218,237.927356 701.39309,237.927356 C701.561962,237.927356 701.656953,237.890197 701.656953,237.73758 C701.656953,237.642029 701.525021,237.60487 701.317889,237.60487 C700.676703,237.60487 699.602782,237.642029 699.188518,237.642029 C698.717523,237.642029 697.586872,237.60487 696.965476,237.60487 C696.701613,237.60487 696.569682,237.642029 696.569682,237.73758 C696.569682,237.88887 696.664672,237.927356 696.833545,237.927356 C697.040677,237.927356 697.247809,237.945935 697.436471,238.003 C697.794004,238.117131 697.964196,238.306907 698.001136,238.856327 C698.019607,239.367261 698.019607,239.822457 698.019607,242.266978 L698.019607,245.10963 L698.020926,245.10963 Z M684.612749,242.854884 C684.557338,242.854884 684.499288,242.836305 684.499288,242.740754 L684.499288,242.399688 C684.499288,239.955167 684.499288,239.367261 684.537548,238.855 C684.575808,238.285673 684.70774,238.058739 685.158945,237.983094 C685.347606,237.945935 685.498008,237.926029 685.629939,237.926029 C685.837071,237.926029 685.932062,237.868963 685.932062,237.756159 C685.932062,237.642029 685.818601,237.60487 685.592998,237.60487 C684.933342,237.60487 683.78422,237.642029 683.388427,237.642029 C682.935902,237.642029 681.843511,237.60487 680.958252,237.60487 C680.73265,237.60487 680.600718,237.642029 680.600718,237.756159 C680.600718,237.87029 680.714179,237.926029 680.883051,237.926029 C681.128444,237.926029 681.410777,237.944608 681.542708,237.983094 C682.070433,238.134383 682.220835,238.30558 682.259095,238.855 C682.277565,239.365934 682.277565,239.82113 682.277565,242.265651 L682.277565,245.108303 C682.277565,246.586694 682.277565,247.856731 682.202364,248.538861 C682.145634,249.012636 682.051963,249.316543 681.712899,249.392187 C681.562498,249.430673 681.373836,249.449253 681.128444,249.449253 C680.921311,249.449253 680.864581,249.543477 680.864581,249.619122 C680.864581,249.733253 680.978042,249.790318 681.185174,249.790318 C681.844831,249.790318 682.937222,249.733253 683.314545,249.733253 C683.78554,249.733253 684.934661,249.790318 686.008582,249.790318 C686.215714,249.790318 686.347645,249.733253 686.347645,249.619122 C686.347645,249.543477 686.272445,249.449253 686.083783,249.449253 C685.83971,249.449253 685.462387,249.430673 685.235465,249.392187 C684.746,249.316543 684.651009,249.012636 684.595598,248.55744 C684.520397,247.856731 684.500607,246.623853 684.500607,245.146789 L684.500607,243.913911 C684.500607,243.838267 684.557338,243.819687 684.614068,243.819687 L690.87025,243.819687 C690.90851,243.819687 690.963921,243.856846 690.963921,243.913911 L690.963921,245.146789 C690.963921,246.62518 690.963921,247.856731 690.888721,248.538861 C690.83199,249.012636 690.738319,249.316543 690.399255,249.392187 C690.248854,249.430673 690.060192,249.449253 689.796329,249.449253 C689.607668,249.449253 689.532467,249.543477 689.532467,249.619122 C689.532467,249.733253 689.664398,249.790318 689.890001,249.790318 C690.531187,249.790318 691.698779,249.733253 692.076102,249.733253 C692.528626,249.733253 693.621018,249.790318 694.694938,249.790318 C694.90207,249.790318 695.034002,249.733253 695.034002,249.619122 C695.034002,249.543477 694.94033,249.449253 694.770139,249.449253 C694.506277,249.449253 694.148743,249.430673 693.921821,249.392187 C693.412566,249.316543 693.318895,249.012636 693.262164,248.55744 C693.186964,247.856731 693.186964,246.586694 693.186964,245.108303 L693.186964,242.265651 C693.186964,239.82113 693.186964,239.365934 693.225224,238.855 C693.263484,238.285673 693.394096,238.058739 693.82815,237.983094 C694.035282,237.945935 694.185683,237.926029 694.317615,237.926029 C694.506277,237.926029 694.618418,237.868963 694.618418,237.756159 C694.618418,237.642029 694.504957,237.60487 694.260884,237.60487 C693.619698,237.60487 692.527307,237.642029 692.131513,237.642029 C691.698779,237.642029 690.529867,237.60487 689.644608,237.60487 C689.399216,237.60487 689.287075,237.642029 689.287075,237.756159 C689.287075,237.87029 689.380746,237.926029 689.569408,237.926029 C689.79501,237.926029 690.078662,237.944608 690.210594,237.983094 C690.738319,238.134383 690.888721,238.30558 690.926981,238.855 C690.945451,239.365934 690.965241,239.95384 690.965241,242.399688 L690.965241,242.740754 C690.965241,242.834978 690.90851,242.854884 690.871569,242.854884 L684.612749,242.854884 Z M734.936621,226.608505 C740.918385,226.608505 744.760225,222.436097 744.760225,215.691766 C744.758905,211.557844 741.961962,206.209624 738.775821,206.169811 C735.361439,206.127344 735.401019,210.967284 735.30339,214.259823 L734.936621,226.608505 Z M734.738724,249.09359 L734.159545,243.282211 L733.641055,238.281692 C731.990595,238.525878 730.333538,239.716289 730.333538,243.197277 C730.333538,246.292078 731.976083,248.776412 734.738724,249.09359 Z M734.853504,238.257804 L734.76511,249.097571 C734.953772,249.117477 735.146391,249.128094 735.344288,249.128094 C736.51188,249.128094 739.150507,248.578674 739.150507,243.99221 C739.151825,240.657204 737.286317,238.517916 734.853504,238.257804 Z M732.57637,228.01656 C725.487702,227.076972 721.796264,221.296117 721.796264,215.040159 C721.796264,210.001154 726.664529,204.520224 731.73069,204 C728.391509,205.044429 725.459996,209.186314 725.459996,215.040159 C725.459996,220.290174 727.896767,225.46587 732.57637,226.360337 L732.026216,218.055334 C731.848109,215.352028 731.824362,213.176908 732.225433,209.95736 C732.604076,206.918297 734.943217,204.318504 738.882686,204.323813 C745.349958,204.33443 748.422637,210.862443 748.422637,215.852346 C748.422637,223.667648 742.539821,228.120074 734.936621,228.120074 L734.916831,230.568577 C735.135837,230.499567 735.356162,230.430558 735.576487,230.362876 C736.420848,230.109399 737.273124,229.764353 738.171576,229.839998 C740.376148,230.045698 742.551695,230.619006 744.553093,231.575847 C745.035961,231.816052 745.55709,232.000519 745.972673,232.353528 C744.455463,231.7988 742.863053,231.485604 741.2746,231.206912 C739.832591,230.989268 738.340448,231.2308 737.022454,231.854538 C736.308706,232.115977 735.602874,232.403958 734.89968,232.701229 L734.86142,237.375281 C739.029129,237.384571 741.62026,239.713635 741.62026,243.40165 C741.62026,247.097629 738.944693,249.997346 734.667481,249.997346 C729.844073,249.997346 727.884893,246.548208 727.884893,243.68565 C727.884893,241.184063 729.477304,238.008309 733.556619,237.457562 L733.141036,233.449714 C731.291359,234.231377 729.423212,234.961283 727.42973,235.285096 C726.274012,235.516012 725.103782,235.665974 723.961257,235.963245 C723.895291,235.270498 723.809536,234.540592 724.010071,233.862443 C724.106381,233.459004 724.556267,233.397957 724.89533,233.319658 C726.741049,233.001154 728.530037,232.427846 730.346731,231.979286 C731.206923,231.745716 732.059199,231.48295 732.908837,231.212221 L732.57637,228.01656 Z M670.902449,244.29479 C670.902449,246.038601 670.902449,247.535572 670.808778,248.331833 C670.733577,248.881253 670.638587,249.297963 670.262582,249.374935 C670.092391,249.412094 669.866789,249.45058 669.584456,249.45058 C669.358853,249.45058 669.283652,249.507645 669.283652,249.601869 C669.283652,249.73458 669.415584,249.791645 669.660976,249.791645 C670.414303,249.791645 671.601685,249.73458 672.03442,249.73458 C672.523885,249.73458 673.711266,249.791645 674.954059,249.791645 C675.161191,249.791645 675.311593,249.73458 675.311593,249.601869 C675.311593,249.507645 675.217922,249.45058 675.01079,249.45058 C674.728457,249.45058 674.314192,249.412094 674.049011,249.374935 C673.484345,249.29929 673.370884,248.881253 673.314153,248.35174 C673.220482,247.536899 673.220482,246.039928 673.220482,244.296117 L673.220482,236.714385 C673.220482,236.50603 673.277212,236.391899 673.370884,236.35474 C673.541075,236.297675 673.823408,236.279095 674.105741,236.279095 C674.538476,236.279095 675.311593,236.393226 675.98972,237.018291 C677.04517,237.965842 677.101901,239.235878 677.101901,239.860943 C677.101901,241.79453 675.632186,242.987594 674.576736,242.987594 C674.180942,242.987594 674.049011,243.04466 674.049011,243.195949 C674.049011,243.32866 674.180942,243.347239 674.275932,243.365818 C674.369604,243.384398 674.576736,243.384398 674.671726,243.384398 C677.347293,243.384398 679.306472,241.489297 679.306472,238.797934 C679.306472,237.793318 678.778747,236.941319 678.364483,236.543189 C678.06368,236.259189 677.215362,235.462928 674.860388,235.462928 C673.993599,235.462928 672.901208,235.519993 672.128091,235.519993 C671.600366,235.519993 670.414303,235.462928 669.415584,235.462928 C669.131931,235.462928 669,235.501414 669,235.632797 C669,235.765507 669.113461,235.803993 669.320593,235.803993 C669.584456,235.803993 669.905049,235.822572 670.05545,235.861058 C670.676847,235.993768 670.828568,236.296348 670.865508,236.941319 C670.902449,237.547805 670.902449,238.078645 670.902449,240.959783 L670.902449,244.29479 Z" id="Shape-Copy"></path>
        </g>
    </g>
</svg>