<svg width="26" height="30" viewBox="0 0 26 30" fill="none" xmlns="http://www.w3.org/2000/svg">
<path d="M8.70711 11.7929C8.07714 12.4229 8.52331 13.5 9.41421 13.5H10.5C11.0523 13.5 11.5 13.9477 11.5 14.5V27.5C11.5 28.0523 11.9477 28.5 12.5 28.5H13.5C14.0523 28.5 14.5 28.0523 14.5 27.5V14.5C14.5 13.9477 14.9477 13.5 15.5 13.5H16.5858C17.4767 13.5 17.9229 12.4229 17.2929 11.7929L13.7071 8.20711C13.3166 7.81658 12.6834 7.81658 12.2929 8.20711L8.70711 11.7929ZM2 1.5C1.44772 1.5 1 1.94772 1 2.5V3.5C1 4.05228 1.44772 4.5 2 4.5H24C24.5523 4.5 25 4.05228 25 3.5V2.5C25 1.94772 24.5523 1.5 24 1.5H2Z" fill="white" stroke="black" stroke-width="1.5"/>
</svg>
